\relax 
\providecommand\hyper@newdestlabel[2]{}
\providecommand*\new@tpo@label[2]{}
\catcode `"\active 
\providecommand\HyperFirstAtBeginDocument{\AtBeginDocument}
\HyperFirstAtBeginDocument{\ifx\hyper@anchor\@undefined
\global\let\oldcontentsline\contentsline
\gdef\contentsline#1#2#3#4{\oldcontentsline{#1}{#2}{#3}}
\global\let\oldnewlabel\newlabel
\gdef\newlabel#1#2{\newlabelxx{#1}#2}
\gdef\newlabelxx#1#2#3#4#5#6{\oldnewlabel{#1}{{#2}{#3}}}
\AtEndDocument{\ifx\hyper@anchor\@undefined
\let\contentsline\oldcontentsline
\let\newlabel\oldnewlabel
\fi}
\fi}
\global\let\hyper@last\relax 
\gdef\HyperFirstAtBeginDocument#1{#1}
\providecommand\HyField@AuxAddToFields[1]{}
\providecommand\HyField@AuxAddToCoFields[2]{}
\select@language{english}
\@writefile{toc}{\select@language{english}}
\@writefile{lof}{\select@language{english}}
\@writefile{lot}{\select@language{english}}
\select@language{ngerman}
\@writefile{toc}{\select@language{ngerman}}
\@writefile{lof}{\select@language{ngerman}}
\@writefile{lot}{\select@language{ngerman}}
\select@language{english}
\@writefile{toc}{\select@language{english}}
\@writefile{lof}{\select@language{english}}
\@writefile{lot}{\select@language{english}}
\select@language{ngerman}
\@writefile{toc}{\select@language{ngerman}}
\@writefile{lof}{\select@language{ngerman}}
\@writefile{lot}{\select@language{ngerman}}
\citation{digitalreport}
\citation{facebookresearch}
\citation{twitterlivestatis}
\citation{bitcoin}
\citation{krypto}
\citation{cryptoecosystems}
\citation{choosingcrypto}
\@writefile{toc}{\contentsline {chapter}{\numberline {1}Einleitung}{1}{chapter.1}}
\@writefile{lof}{\addvspace {10\p@ }}
\@writefile{lot}{\addvspace {10\p@ }}
\@writefile{lol}{\addvspace {10\p@ }}
\@writefile{toc}{\contentsline {section}{\numberline {1.1}Zielsetzung}{1}{section.1.1}}
\citation{tradingontwitterstock}
\citation{investorsentimentimpact}
\citation{analysisstockpriceflow}
\citation{textminingtweetsstock}
\citation{epidemicmodelling}
\citation{socioeconomicsignals}
\citation{textmining}
\citation{bitcoinspreadprediction}
\citation{bitcoinresponsetotwitter}
\citation{socioeconomicsignals}
\citation{socialsignalstrading}
\citation{algorithmictrading}
\citation{forecasting}
\citation{nowcasting}
\citation{bitcoinhype}
\citation{coinmarketcap}
\@writefile{toc}{\contentsline {section}{\numberline {1.2}Stand der Forschung}{2}{section.1.2}}
\newlabel{ch:forschungsstand}{{1.2}{2}{Stand der Forschung}{section.1.2}{}}
\@writefile{toc}{\contentsline {section}{\numberline {1.3}Problemstellung}{3}{section.1.3}}
\@writefile{toc}{\contentsline {section}{\numberline {1.4}Ein- und Abgrenzung der Arbeit}{3}{section.1.4}}
\citation{stork}
\@writefile{toc}{\contentsline {section}{\numberline {1.5}Aufbau der Arbeit}{4}{section.1.5}}
\citation{coinmarketcap}
\citation{cryptocompare}
\citation{cryptocompare}
\citation{opinionmining}
\citation{digitalreport}
\@writefile{toc}{\contentsline {chapter}{\numberline {2}Grundlagen}{5}{chapter.2}}
\@writefile{lof}{\addvspace {10\p@ }}
\@writefile{lot}{\addvspace {10\p@ }}
\@writefile{lol}{\addvspace {10\p@ }}
\@writefile{toc}{\contentsline {section}{\numberline {2.1}Kryptow\IeC {\"a}hrungen}{5}{section.2.1}}
\@writefile{lof}{\contentsline {figure}{\numberline {2.1}{\ignorespaces Preisentwicklung von Bitcoin und Litecoin \cite  {cryptocompare}}}{5}{figure.caption.4}}
\providecommand*\caption@xref[2]{\@setref\relax\@undefined{#1}}
\newlabel{fig:bitcoin}{{2.1}{5}{Preisentwicklung von Bitcoin und Litecoin \cite {cryptocompare}}{figure.caption.4}{}}
\citation{opinionmining}
\citation{opinionmining}
\citation{digitalreport}
\citation{opinionminingtwitter}
\citation{twitterapi}
\citation{opinionbots}
\@writefile{toc}{\contentsline {section}{\numberline {2.2}Opinion Mining}{6}{section.2.2}}
\newlabel{ch:opinionmining}{{2.2}{6}{Opinion Mining}{section.2.2}{}}
\citation{textdatamanagement}
\citation{surveyoftechniques}
\citation{opinionmining}
\citation{textdatamanagement}
\citation{opinionmining}
\citation{sentimentsocial}
\citation{sentimentsocial}
\citation{approachesforsa}
\citation{approachesforsa}
\@writefile{toc}{\contentsline {section}{\numberline {2.3}Sentiment Analysis}{7}{section.2.3}}
\@writefile{toc}{\contentsline {subsection}{\numberline {2.3.1}Regelbasierte Sentiment Analysis}{7}{subsection.2.3.1}}
\citation{deeplearningsa}
\citation{rnnsa}
\@writefile{toc}{\contentsline {subsection}{\numberline {2.3.2}Machine Learning Sentiment Analysis}{8}{subsection.2.3.2}}
\citation{kerasbook}
\@writefile{toc}{\contentsline {section}{\numberline {2.4}Vektorrepr\IeC {\"a}sentationen von Texten}{9}{section.2.4}}
\newlabel{ch:wordembeddings}{{2.4}{9}{Vektorrepräsentationen von Texten}{section.2.4}{}}
\@writefile{toc}{\contentsline {subsubsection}{\nonumberline One-hot-Codierung}{10}{section*.5}}
\@writefile{toc}{\contentsline {subsubsection}{\nonumberline Frequenzbasierte Codierungen}{10}{section*.6}}
\@writefile{lot}{\contentsline {table}{\numberline {2.1}{\ignorespaces Bag of Words Modell angwandt\relax }}{10}{table.caption.7}}
\newlabel{table:bow}{{2.1}{10}{Bag of Words Modell angwandt\relax }{table.caption.7}{}}
\citation{textdatamanagement}
\@writefile{lot}{\contentsline {table}{\numberline {2.2}{\ignorespaces TF-IDF Modell angwandt\relax }}{11}{table.caption.8}}
\newlabel{table:tfidf}{{2.2}{11}{TF-IDF Modell angwandt\relax }{table.caption.8}{}}
\citation{kerasbook}
\citation{kerasbook}
\citation{word2vec}
\@writefile{toc}{\contentsline {subsubsection}{\nonumberline Worteinbettungen}{12}{section*.9}}
\citation{word2vec}
\citation{word2vec}
\newlabel{1@xvr}{{}{13}{Worteinbettungen}{section*.9}{}}
\newlabel{1@vr}{{}{13}{Worteinbettungen}{section*.9}{}}
\@writefile{lof}{\contentsline {figure}{\numberline {2.2}{\ignorespaces CBOW und Skip-gram Architekturen \cite  {word2vec}}}{13}{figure.caption.10}}
\newlabel{fig:cbow-sg}{{2.2}{13}{CBOW und Skip-gram Architekturen \cite {word2vec}}{figure.caption.10}{}}
\citation{word2vec}
\citation{teschl}
\citation{correlation}
\citation{correlation}
\@writefile{toc}{\contentsline {section}{\numberline {2.5}Korrelation}{14}{section.2.5}}
\newlabel{ch:korrelation}{{2.5}{14}{Korrelation}{section.2.5}{}}
\citation{kerasbook}
\citation{aws}
\@writefile{toc}{\contentsline {chapter}{\numberline {3}Methodik}{15}{chapter.3}}
\@writefile{lof}{\addvspace {10\p@ }}
\@writefile{lot}{\addvspace {10\p@ }}
\@writefile{lol}{\addvspace {10\p@ }}
\newlabel{ch:methodik}{{3}{15}{Methodik}{chapter.3}{}}
\newlabel{2@xvr}{{}{15}{Methodik}{chapter.3}{}}
\newlabel{2@vr}{{}{15}{Methodik}{chapter.3}{}}
\@writefile{lof}{\contentsline {figure}{\numberline {3.1}{\ignorespaces Vereinfachte Darstellung der Vorgehensweise}}{15}{figure.caption.11}}
\newlabel{fig:systemarchitektur}{{3.1}{15}{Vereinfachte Darstellung der Vorgehensweise}{figure.caption.11}{}}
\citation{cryptocompare}
\citation{twitterapi}
\citation{tweetarchivist}
\citation{twitterminingtactics}
\citation{nowcasting}
\citation{precisetweet}
\@writefile{toc}{\contentsline {section}{\numberline {3.1}Data Mining}{16}{section.3.1}}
\newlabel{ch:method-data-mining}{{3.1}{16}{Data Mining}{section.3.1}{}}
\@writefile{toc}{\contentsline {subsection}{\numberline {3.1.1}Datensammlung des Litecoin-W\IeC {\"a}hrungskurses}{16}{subsection.3.1.1}}
\@writefile{lof}{\contentsline {figure}{\numberline {3.2}{\ignorespaces Schematische Darstellung des Kryptow\IeC {\"a}hrungs-Data-Mining\relax }}{16}{figure.caption.12}}
\newlabel{fig:cryptomining}{{3.2}{16}{Schematische Darstellung des Kryptowährungs-Data-Mining\relax }{figure.caption.12}{}}
\newlabel{lst:cryptoapi}{{3.1}{16}{API Endpunkt für historische Litecoin-Währungskurs-Daten}{lstlisting.3.1}{}}
\@writefile{lol}{\contentsline {lstlisting}{\numberline {3.1}API Endpunkt f\IeC {\"u}r historische Litecoin-W\IeC {\"a}hrungskurs-Daten}{16}{lstlisting.3.1}}
\@writefile{toc}{\contentsline {subsection}{\numberline {3.1.2}Datensammlung der Tweets}{16}{subsection.3.1.2}}
\citation{twitterapi}
\@writefile{lof}{\contentsline {figure}{\numberline {3.3}{\ignorespaces Schematische Darstellung des Tweet Mining}}{17}{figure.caption.13}}
\newlabel{fig:tweetmining}{{3.3}{17}{Schematische Darstellung des Tweet Mining}{figure.caption.13}{}}
\newlabel{3@xvr}{{}{17}{Datensammlung der Tweets}{figure.caption.13}{}}
\newlabel{3@vr}{{}{17}{Datensammlung der Tweets}{figure.caption.13}{}}
\citation{algorithmictrading}
\citation{algorithmictrading}
\newlabel{lst:twitterapiquery}{{3.2}{18}{Twitter API Query}{lstlisting.3.2}{}}
\@writefile{lol}{\contentsline {lstlisting}{\numberline {3.2}Twitter API Query}{18}{lstlisting.3.2}}
\@writefile{toc}{\contentsline {subsection}{\numberline {3.1.3}Datenvorbereitung f\IeC {\"u}r die Sentiment Analysis}{18}{subsection.3.1.3}}
\@writefile{toc}{\contentsline {subsubsection}{\nonumberline Sprachfilterung}{18}{section*.14}}
\@writefile{toc}{\contentsline {subsubsection}{\nonumberline Noise reduction}{18}{section*.15}}
\citation{afinn}
\@writefile{toc}{\contentsline {section}{\numberline {3.2}Regelbasiertes Sentiment-Klassifikationsmodell}{19}{section.3.2}}
\newlabel{ch:rulebased}{{3.2}{19}{Regelbasiertes Sentiment-Klassifikationsmodell}{section.3.2}{}}
\newlabel{4@xvr}{{}{19}{Regelbasiertes Sentiment-Klassifikationsmodell}{section.3.2}{}}
\newlabel{4@vr}{{}{19}{Regelbasiertes Sentiment-Klassifikationsmodell}{section.3.2}{}}
\@writefile{lof}{\contentsline {figure}{\numberline {3.4}{\ignorespaces Schematische Darstellung des regelbasierten Sentiment Klassifizierers\relax }}{19}{figure.caption.16}}
\newlabel{fig:ruleclassifier}{{3.4}{19}{Schematische Darstellung des regelbasierten Sentiment Klassifizierers\relax }{figure.caption.16}{}}
\citation{textanalyticspython}
\citation{handsonmachinelearning}
\citation{kerasbook}
\newlabel{lst:afinnlexicon}{{3.3}{20}{Ausschnitt aus dem AFINN Lexikon}{lstlisting.3.3}{}}
\@writefile{lol}{\contentsline {lstlisting}{\numberline {3.3}Ausschnitt aus dem AFINN Lexikon}{20}{lstlisting.3.3}}
\@writefile{toc}{\contentsline {subsection}{\numberline {3.2.1}Klassifizierung der Tweets}{20}{subsection.3.2.1}}
\newlabel{lst:afinnsentiment}{{3.4}{20}{Sentiment Analaysis mit AFINN}{lstlisting.3.4}{}}
\@writefile{lol}{\contentsline {lstlisting}{\numberline {3.4}Sentiment Analaysis mit AFINN}{20}{lstlisting.3.4}}
\@writefile{toc}{\contentsline {section}{\numberline {3.3}Machine Learning Sentiment-Klassifikationsmodell}{20}{section.3.3}}
\newlabel{ch:ml-sentiment}{{3.3}{20}{Machine Learning Sentiment-Klassifikationsmodell}{section.3.3}{}}
\@writefile{lof}{\contentsline {figure}{\numberline {3.5}{\ignorespaces Schematische Darstellung des Machine Learning Klassifizierers}}{20}{figure.caption.17}}
\newlabel{fig:mlclassifier}{{3.5}{20}{Schematische Darstellung des Machine Learning Klassifizierers}{figure.caption.17}{}}
\citation{sentiment140}
\newlabel{5@xvr}{{}{21}{Machine Learning Sentiment-Klassifikationsmodell}{figure.caption.17}{}}
\newlabel{5@vr}{{}{21}{Machine Learning Sentiment-Klassifikationsmodell}{figure.caption.17}{}}
\@writefile{toc}{\contentsline {subsection}{\numberline {3.3.1}\IeC {\"U}bersicht}{21}{subsection.3.3.1}}
\@writefile{lof}{\contentsline {figure}{\numberline {3.6}{\ignorespaces Aufteilung des Datensatzes in Trainings- und Testdaten}}{22}{figure.caption.18}}
\newlabel{fig:split}{{3.6}{22}{Aufteilung des Datensatzes in Trainings- und Testdaten}{figure.caption.18}{}}
\@writefile{lof}{\contentsline {figure}{\numberline {3.7}{\ignorespaces Anwendung des Word2Vec-Modells}}{22}{figure.caption.19}}
\newlabel{fig:word2vec-rnn}{{3.7}{22}{Anwendung des Word2Vec-Modells}{figure.caption.19}{}}
\@writefile{toc}{\contentsline {subsection}{\numberline {3.3.2}Datenvorbereitung}{22}{subsection.3.3.2}}
\newlabel{ch:ml-preprocessing}{{3.3.2}{22}{Datenvorbereitung}{subsection.3.3.2}{}}
\citation{word2vec}
\newlabel{lst:dataprep}{{3.5}{23}{Datenvorbereitung}{lstlisting.3.5}{}}
\@writefile{lol}{\contentsline {lstlisting}{\numberline {3.5}Datenvorbereitung}{23}{lstlisting.3.5}}
\@writefile{toc}{\contentsline {subsection}{\numberline {3.3.3}Word-Embeddings-Modell mit Word2Vec}{23}{subsection.3.3.3}}
\newlabel{ch:w2vmodell}{{3.3.3}{23}{Word-Embeddings-Modell mit Word2Vec}{subsection.3.3.3}{}}
\newlabel{6@xvr}{{}{23}{Word-Embeddings-Modell mit Word2Vec}{subsection.3.3.3}{}}
\newlabel{6@vr}{{}{23}{Word-Embeddings-Modell mit Word2Vec}{subsection.3.3.3}{}}
\@writefile{lof}{\contentsline {figure}{\numberline {3.8}{\ignorespaces Vorrgehensweise zur Erstellung des Word-Embeddings Modelles}}{24}{figure.caption.20}}
\newlabel{fig:w2v}{{3.8}{24}{Vorrgehensweise zur Erstellung des Word-Embeddings Modelles}{figure.caption.20}{}}
\newlabel{lst:w2v}{{3.6}{24}{Anwendung Word2Vec Modelles}{lstlisting.3.6}{}}
\@writefile{lol}{\contentsline {lstlisting}{\numberline {3.6}Anwendung Word2Vec Modelles}{24}{lstlisting.3.6}}
\@writefile{toc}{\contentsline {subsection}{\numberline {3.3.4}RNN-Sentiment-Klassifikationsmodell}{24}{subsection.3.3.4}}
\newlabel{ch:rnn}{{3.3.4}{24}{RNN-Sentiment-Klassifikationsmodell}{subsection.3.3.4}{}}
\newlabel{7@xvr}{{}{24}{RNN-Sentiment-Klassifikationsmodell}{subsection.3.3.4}{}}
\newlabel{7@vr}{{}{24}{RNN-Sentiment-Klassifikationsmodell}{subsection.3.3.4}{}}
\@writefile{lof}{\contentsline {figure}{\numberline {3.9}{\ignorespaces Zusammenfassung des RNN Modelles}}{25}{figure.caption.21}}
\newlabel{fig:rnnsummary}{{3.9}{25}{Zusammenfassung des RNN Modelles}{figure.caption.21}{}}
\@writefile{toc}{\contentsline {subsubsection}{\nonumberline Embedding Layer}{25}{section*.22}}
\newlabel{lst:kerastokenizer}{{3.7}{25}{Anwendung des Keras Tokenizer}{lstlisting.3.7}{}}
\@writefile{lol}{\contentsline {lstlisting}{\numberline {3.7}Anwendung des Keras Tokenizer}{25}{lstlisting.3.7}}
\citation{dropout}
\citation{kerasbook}
\citation{kerasbook}
\citation{kerasbook}
\@writefile{toc}{\contentsline {subsubsection}{\nonumberline Dropout Layer}{26}{section*.23}}
\newlabel{ch:dropoutlayer}{{3.3.4}{26}{Dropout Layer}{section*.23}{}}
\@writefile{toc}{\contentsline {subsubsection}{\nonumberline LSTM Layer}{26}{section*.24}}
\@writefile{lof}{\contentsline {figure}{\numberline {3.10}{\ignorespaces Aufbau eines LSTM Layers \cite  {kerasbook}}}{26}{figure.caption.25}}
\newlabel{fig:lstm}{{3.10}{26}{Aufbau eines LSTM Layers \cite {kerasbook}}{figure.caption.25}{}}
\citation{kerasbook}
\citation{adam}
\@writefile{toc}{\contentsline {subsubsection}{\nonumberline Dense Layer}{27}{section*.26}}
\newlabel{lst:rnn}{{3.8}{27}{Modell}{lstlisting.3.8}{}}
\@writefile{lol}{\contentsline {lstlisting}{\numberline {3.8}Modell}{27}{lstlisting.3.8}}
\@writefile{toc}{\contentsline {subsection}{\numberline {3.3.5}Modell trainieren}{27}{subsection.3.3.5}}
\newlabel{lst:training}{{3.9}{27}{Trainieren des Modelles}{lstlisting.3.9}{}}
\@writefile{lol}{\contentsline {lstlisting}{\numberline {3.9}Trainieren des Modelles}{27}{lstlisting.3.9}}
\@writefile{toc}{\contentsline {subsection}{\numberline {3.3.6}Klassifizierung der Tweets}{28}{subsection.3.3.6}}
\newlabel{lst:mlclassification}{{3.10}{28}{Klassifizierung eines einzelnen Tweets}{lstlisting.3.10}{}}
\@writefile{lol}{\contentsline {lstlisting}{\numberline {3.10}Klassifizierung eines einzelnen Tweets}{28}{lstlisting.3.10}}
\citation{socioeconomicsignals}
\citation{textmining}
\citation{bitcoinspreadprediction}
\citation{bitcoinresponsetotwitter}
\citation{socialsignalstrading}
\citation{nowcasting}
\citation{textmining}
\citation{nowcasting}
\@writefile{toc}{\contentsline {section}{\numberline {3.4}Analyse}{29}{section.3.4}}
\newlabel{ch:methodik-analyse}{{3.4}{29}{Analyse}{section.3.4}{}}
\@writefile{toc}{\contentsline {subsection}{\numberline {3.4.1}Aggregation der Tweets}{29}{subsection.3.4.1}}
\@writefile{lot}{\contentsline {table}{\numberline {3.1}{\ignorespaces Schematische Struktur des Datensatzes nach der Aggregation\relax }}{29}{table.caption.27}}
\newlabel{table:aggregation}{{3.1}{29}{Schematische Struktur des Datensatzes nach der Aggregation\relax }{table.caption.27}{}}
\@writefile{toc}{\contentsline {subsection}{\numberline {3.4.2}Korrelationsanalyse}{29}{subsection.3.4.2}}
\@writefile{toc}{\contentsline {chapter}{\numberline {4}Ergebnisse}{30}{chapter.4}}
\@writefile{lof}{\addvspace {10\p@ }}
\@writefile{lot}{\addvspace {10\p@ }}
\@writefile{lol}{\addvspace {10\p@ }}
\@writefile{toc}{\contentsline {section}{\numberline {4.1}Data Mining}{30}{section.4.1}}
\newlabel{ch:result-data-mining}{{4.1}{30}{Data Mining}{section.4.1}{}}
\newlabel{8@xvr}{{}{30}{Data Mining}{section.4.1}{}}
\newlabel{8@vr}{{}{30}{Data Mining}{section.4.1}{}}
\newlabel{fig:result-lang}{{4.1a}{30}{Sprachverteilung\relax }{figure.caption.28}{}}
\newlabel{sub@fig:result-lang}{{a}{30}{Sprachverteilung\relax }{figure.caption.28}{}}
\newlabel{fig:result-noise}{{4.1b}{30}{Noise\relax }{figure.caption.28}{}}
\newlabel{sub@fig:result-noise}{{b}{30}{Noise\relax }{figure.caption.28}{}}
\@writefile{lof}{\contentsline {figure}{\numberline {4.1}{\ignorespaces Auswertung der Datenvorbereitungsmassnahmen\relax }}{30}{figure.caption.28}}
\newlabel{fig:result-data-cleaning}{{4.1}{30}{Auswertung der Datenvorbereitungsmassnahmen\relax }{figure.caption.28}{}}
\newlabel{9@xvr}{{}{30}{Data Mining}{figure.caption.28}{}}
\newlabel{9@vr}{{}{30}{Data Mining}{figure.caption.28}{}}
\citation{word2vec}
\@writefile{lof}{\contentsline {figure}{\numberline {4.2}{\ignorespaces Preisentwicklung von Litecoin \IeC {\"u}ber den Untersuchungszeitraum\relax }}{31}{figure.caption.29}}
\newlabel{fig:result-crypto}{{4.2}{31}{Preisentwicklung von Litecoin über den Untersuchungszeitraum\relax }{figure.caption.29}{}}
\@writefile{toc}{\contentsline {section}{\numberline {4.2}Machine Learning Sentiment-Klassifikationsmodell}{31}{section.4.2}}
\@writefile{toc}{\contentsline {subsubsection}{\nonumberline Word2Vec-Modell}{31}{section*.30}}
\newlabel{lst:kerastokenizer}{{4.1}{31}{Anwendung des Word2Vec Modelles}{lstlisting.4.1}{}}
\@writefile{lol}{\contentsline {lstlisting}{\numberline {4.1}Anwendung des Word2Vec Modelles}{31}{lstlisting.4.1}}
\@writefile{toc}{\contentsline {subsection}{\numberline {4.2.1}Validierung des Sentiment-Klassifikationsmodells}{31}{subsection.4.2.1}}
\newlabel{10@xvr}{{}{31}{Validierung des Sentiment-Klassifikationsmodells}{subsection.4.2.1}{}}
\newlabel{10@vr}{{}{31}{Validierung des Sentiment-Klassifikationsmodells}{subsection.4.2.1}{}}
\newlabel{fig:model-loss}{{4.3a}{32}{Wert der Verlustfunktion\relax }{figure.caption.31}{}}
\newlabel{sub@fig:model-loss}{{a}{32}{Wert der Verlustfunktion\relax }{figure.caption.31}{}}
\newlabel{fig:model-acc}{{4.3b}{32}{Korrektklassifizierungsrate\relax }{figure.caption.31}{}}
\newlabel{sub@fig:model-acc}{{b}{32}{Korrektklassifizierungsrate\relax }{figure.caption.31}{}}
\@writefile{lof}{\contentsline {figure}{\numberline {4.3}{\ignorespaces Validierung des Modelles}}{32}{figure.caption.31}}
\newlabel{fig:model-validation}{{4.3}{32}{Validierung des Modelles}{figure.caption.31}{}}
\@writefile{toc}{\contentsline {section}{\numberline {4.3}Sentiment Analysis Resultate}{32}{section.4.3}}
\newlabel{11@xvr}{{}{32}{Sentiment Analysis Resultate}{section.4.3}{}}
\newlabel{11@vr}{{}{32}{Sentiment Analysis Resultate}{section.4.3}{}}
\newlabel{fig:model-loss}{{4.4a}{32}{Regelbasierter Ansatz\relax }{figure.caption.32}{}}
\newlabel{sub@fig:model-loss}{{a}{32}{Regelbasierter Ansatz\relax }{figure.caption.32}{}}
\newlabel{fig:model-acc}{{4.4b}{32}{Machine Learning Ansatz\relax }{figure.caption.32}{}}
\newlabel{sub@fig:model-acc}{{b}{32}{Machine Learning Ansatz\relax }{figure.caption.32}{}}
\@writefile{lof}{\contentsline {figure}{\numberline {4.4}{\ignorespaces Sentiment Klassen-Verteilung der beiden Ans\IeC {\"a}tze\relax }}{32}{figure.caption.32}}
\newlabel{fig:result-sentiment}{{4.4}{32}{Sentiment Klassen-Verteilung der beiden Ansätze\relax }{figure.caption.32}{}}
\@writefile{toc}{\contentsline {subsection}{\numberline {4.3.1}Regelbasierte Sentiment-Klassifikation}{32}{subsection.4.3.1}}
\newlabel{12@xvr}{{}{32}{Regelbasierte Sentiment-Klassifikation}{subsection.4.3.1}{}}
\newlabel{12@vr}{{}{32}{Regelbasierte Sentiment-Klassifikation}{subsection.4.3.1}{}}
\newlabel{fig:model-loss}{{4.5a}{33}{Tweets mit den höchsten AFINN Scores\relax }{figure.caption.33}{}}
\newlabel{sub@fig:model-loss}{{a}{33}{Tweets mit den höchsten AFINN Scores\relax }{figure.caption.33}{}}
\newlabel{fig:model-acc}{{4.5b}{33}{Tweets mit den niedrigsten AFINN Scores\relax }{figure.caption.33}{}}
\newlabel{sub@fig:model-acc}{{b}{33}{Tweets mit den niedrigsten AFINN Scores\relax }{figure.caption.33}{}}
\@writefile{lof}{\contentsline {figure}{\numberline {4.5}{\ignorespaces Regelbasierte Tweet Klasifikation}}{33}{figure.caption.33}}
\newlabel{fig:result-sentiment-rule}{{4.5}{33}{Regelbasierte Tweet Klasifikation}{figure.caption.33}{}}
\@writefile{toc}{\contentsline {subsection}{\numberline {4.3.2}Machine Learning Sentiment-Klassifikation}{33}{subsection.4.3.2}}
\newlabel{13@xvr}{{}{33}{Machine Learning Sentiment-Klassifikation}{subsection.4.3.2}{}}
\newlabel{13@vr}{{}{33}{Machine Learning Sentiment-Klassifikation}{subsection.4.3.2}{}}
\newlabel{fig:model-loss}{{4.6a}{33}{Tweets mit den höchsten ML Scores\relax }{figure.caption.34}{}}
\newlabel{sub@fig:model-loss}{{a}{33}{Tweets mit den höchsten ML Scores\relax }{figure.caption.34}{}}
\newlabel{fig:model-acc}{{4.6b}{33}{Tweets mit den niedrigsten ML Scores\relax }{figure.caption.34}{}}
\newlabel{sub@fig:model-acc}{{b}{33}{Tweets mit den niedrigsten ML Scores\relax }{figure.caption.34}{}}
\@writefile{lof}{\contentsline {figure}{\numberline {4.6}{\ignorespaces Machine Learning Tweet Klasifikation}}{33}{figure.caption.34}}
\newlabel{fig:result-sentiment-ml}{{4.6}{33}{Machine Learning Tweet Klasifikation}{figure.caption.34}{}}
\@writefile{toc}{\contentsline {subsection}{\numberline {4.3.3}Gegens\IeC {\"a}tzlich Klassifizierte Tweets}{33}{subsection.4.3.3}}
\newlabel{ch:result-diff}{{4.3.3}{33}{Gegensätzlich Klassifizierte Tweets}{subsection.4.3.3}{}}
\newlabel{14@xvr}{{}{33}{Gegensätzlich Klassifizierte Tweets}{subsection.4.3.3}{}}
\newlabel{14@vr}{{}{33}{Gegensätzlich Klassifizierte Tweets}{subsection.4.3.3}{}}
\newlabel{fig:model-loss}{{4.7a}{33}{Machine Learning positiv, aber regelbasiert negativ\relax }{figure.caption.35}{}}
\newlabel{sub@fig:model-loss}{{a}{33}{Machine Learning positiv, aber regelbasiert negativ\relax }{figure.caption.35}{}}
\newlabel{fig:model-acc}{{4.7b}{33}{Gegensätzlich klassifizierte Tweets}{figure.caption.35}{}}
\newlabel{sub@fig:model-acc}{{b}{33}{Gegensätzlich klassifizierte Tweets}{figure.caption.35}{}}
\@writefile{lof}{\contentsline {figure}{\numberline {4.7}{\ignorespaces Tweets die gegens\IeC {\"a}tzlich klassifiziert wurden\relax }}{33}{figure.caption.35}}
\newlabel{fig:result-sentiment-diff}{{4.7}{33}{Tweets die gegensätzlich klassifiziert wurden\relax }{figure.caption.35}{}}
\@writefile{toc}{\contentsline {section}{\numberline {4.4}Korrelationsanalyse}{34}{section.4.4}}
\newlabel{ch:ergebniss}{{4.4}{34}{Korrelationsanalyse}{section.4.4}{}}
\@writefile{toc}{\contentsline {subsection}{\numberline {4.4.1}Korrelation ohne Sentiment-Klassifikation}{35}{subsection.4.4.1}}
\newlabel{15@xvr}{{}{35}{Korrelation ohne Sentiment-Klassifikation}{subsection.4.4.1}{}}
\newlabel{15@vr}{{}{35}{Korrelation ohne Sentiment-Klassifikation}{subsection.4.4.1}{}}
\@writefile{lof}{\contentsline {figure}{\numberline {4.8}{\ignorespaces Diagramm aller Tweets ohne Anwendung von Sentiment Analysis\relax }}{35}{figure.caption.36}}
\newlabel{fig:total-curve}{{4.8}{35}{Diagramm aller Tweets ohne Anwendung von Sentiment Analysis\relax }{figure.caption.36}{}}
\@writefile{lot}{\contentsline {table}{\numberline {4.1}{\ignorespaces Korrelationsanalyse ohne Sentiment Analysis}}{35}{table.caption.37}}
\newlabel{table:result-correlation-total}{{4.1}{35}{Korrelationsanalyse ohne Sentiment Analysis}{table.caption.37}{}}
\@writefile{lof}{\contentsline {figure}{\numberline {4.9}{\ignorespaces Streudiagramm der Korrelation ohne Sentiment Analysis}}{35}{figure.caption.38}}
\newlabel{fig:total-scatter}{{4.9}{35}{Streudiagramm der Korrelation ohne Sentiment Analysis}{figure.caption.38}{}}
\@writefile{toc}{\contentsline {subsection}{\numberline {4.4.2}Korrelation mit regelbasierter Sentiment-Klassifikation}{36}{subsection.4.4.2}}
\newlabel{16@xvr}{{}{36}{Korrelation mit regelbasierter Sentiment-Klassifikation}{subsection.4.4.2}{}}
\newlabel{16@vr}{{}{36}{Korrelation mit regelbasierter Sentiment-Klassifikation}{subsection.4.4.2}{}}
\@writefile{lof}{\contentsline {figure}{\numberline {4.10}{\ignorespaces Diagramm der regelbasierten Sentiment Analysis\relax }}{36}{figure.caption.39}}
\newlabel{fig:rule-curve}{{4.10}{36}{Diagramm der regelbasierten Sentiment Analysis\relax }{figure.caption.39}{}}
\@writefile{lot}{\contentsline {table}{\numberline {4.2}{\ignorespaces Korrelationsanalyse regelbasierte Sentiment Analysis}}{36}{table.caption.40}}
\newlabel{table:result-correlation-rule}{{4.2}{36}{Korrelationsanalyse regelbasierte Sentiment Analysis}{table.caption.40}{}}
\@writefile{lof}{\contentsline {figure}{\numberline {4.11}{\ignorespaces Streudiagramm der Korrelation mit regalbasierter Sentiment Analysis}}{36}{figure.caption.41}}
\newlabel{fig:rule-scatter}{{4.11}{36}{Streudiagramm der Korrelation mit regalbasierter Sentiment Analysis}{figure.caption.41}{}}
\@writefile{toc}{\contentsline {subsection}{\numberline {4.4.3}Korrelation mit Machine-Learning Sentiment-Klassifikation}{37}{subsection.4.4.3}}
\newlabel{17@xvr}{{}{37}{Korrelation mit Machine-Learning Sentiment-Klassifikation}{subsection.4.4.3}{}}
\newlabel{17@vr}{{}{37}{Korrelation mit Machine-Learning Sentiment-Klassifikation}{subsection.4.4.3}{}}
\@writefile{lof}{\contentsline {figure}{\numberline {4.12}{\ignorespaces Diagramm der Machine Learning Sentiment Analysis\relax }}{37}{figure.caption.42}}
\newlabel{fig:ml-curve}{{4.12}{37}{Diagramm der Machine Learning Sentiment Analysis\relax }{figure.caption.42}{}}
\@writefile{lot}{\contentsline {table}{\numberline {4.3}{\ignorespaces Korrelationsanalyse ML Sentiment Analysis}}{37}{table.caption.43}}
\newlabel{table:result-correlation-ml}{{4.3}{37}{Korrelationsanalyse ML Sentiment Analysis}{table.caption.43}{}}
\@writefile{lof}{\contentsline {figure}{\numberline {4.13}{\ignorespaces Streudiagramm der Korrelation mit Machine Learning Sentiment Analysis}}{37}{figure.caption.44}}
\newlabel{fig:ml-scatter}{{4.13}{37}{Streudiagramm der Korrelation mit Machine Learning Sentiment Analysis}{figure.caption.44}{}}
\citation{approachesforsa}
\@writefile{toc}{\contentsline {chapter}{\numberline {5}Diskussion}{38}{chapter.5}}
\@writefile{lof}{\addvspace {10\p@ }}
\@writefile{lot}{\addvspace {10\p@ }}
\@writefile{lol}{\addvspace {10\p@ }}
\@writefile{toc}{\contentsline {section}{\numberline {5.1}Data Mining}{38}{section.5.1}}
\@writefile{toc}{\contentsline {section}{\numberline {5.2}Sentiment Analysis}{38}{section.5.2}}
\citation{kerasbook}
\citation{nowcasting}
\@writefile{toc}{\contentsline {section}{\numberline {5.3}Korrelationsanalyse zwischen Tweets und W\IeC {\"a}hrungskurs}{39}{section.5.3}}
\citation{glove}
\citation{nowcasting}
\citation{bitcoinspreadprediction}
\@writefile{toc}{\contentsline {section}{\numberline {5.4}Fazit}{40}{section.5.4}}
\@writefile{toc}{\contentsline {section}{\numberline {5.5}Ausblick}{40}{section.5.5}}
\citation{cryptocompare}
\citation{word2vec}
\citation{kerasbook}
\@writefile{toc}{\contentsline {chapter}{\nonumberline Abbildungsverzeichnis}{41}{chapter*.45}}
\@writefile{toc}{\contentsline {chapter}{\nonumberline Tabellenverzeichnis}{42}{chapter*.46}}
\bibstyle{unsrt}
\bibdata{References}
\@writefile{toc}{\contentsline {chapter}{\nonumberline Auflistungsverzeichnis}{43}{chapter*.47}}
\@writefile{lof}{\addvspace {10\p@ }}
\@writefile{lot}{\addvspace {10\p@ }}
\@writefile{lol}{\addvspace {10\p@ }}
\bibcite{digitalreport}{1}
\bibcite{facebookresearch}{2}
\bibcite{twitterlivestatis}{3}
\bibcite{bitcoin}{4}
\bibcite{krypto}{5}
\bibcite{cryptoecosystems}{6}
\bibcite{choosingcrypto}{7}
\bibcite{tradingontwitterstock}{8}
\bibcite{investorsentimentimpact}{9}
\bibcite{analysisstockpriceflow}{10}
\bibcite{textminingtweetsstock}{11}
\@writefile{toc}{\contentsline {chapter}{\nonumberline Literaturverzeichnis}{44}{chapter*.48}}
\@writefile{lof}{\addvspace {10\p@ }}
\@writefile{lot}{\addvspace {10\p@ }}
\@writefile{lol}{\addvspace {10\p@ }}
\bibcite{epidemicmodelling}{12}
\bibcite{socioeconomicsignals}{13}
\bibcite{textmining}{14}
\bibcite{bitcoinspreadprediction}{15}
\bibcite{bitcoinresponsetotwitter}{16}
\bibcite{socialsignalstrading}{17}
\bibcite{algorithmictrading}{18}
\bibcite{forecasting}{19}
\bibcite{nowcasting}{20}
\bibcite{bitcoinhype}{21}
\bibcite{coinmarketcap}{22}
\bibcite{stork}{23}
\bibcite{cryptocompare}{24}
\bibcite{opinionmining}{25}
\bibcite{opinionminingtwitter}{26}
\bibcite{twitterapi}{27}
\bibcite{opinionbots}{28}
\bibcite{textdatamanagement}{29}
\bibcite{surveyoftechniques}{30}
\bibcite{sentimentsocial}{31}
\bibcite{approachesforsa}{32}
\bibcite{deeplearningsa}{33}
\bibcite{rnnsa}{34}
\bibcite{kerasbook}{35}
\bibcite{word2vec}{36}
\bibcite{teschl}{37}
\bibcite{correlation}{38}
\bibcite{aws}{39}
\bibcite{tweetarchivist}{40}
\bibcite{twitterminingtactics}{41}
\bibcite{precisetweet}{42}
\bibcite{afinn}{43}
\bibcite{textanalyticspython}{44}
\bibcite{handsonmachinelearning}{45}
\bibcite{sentiment140}{46}
\bibcite{dropout}{47}
\bibcite{adam}{48}
\bibcite{glove}{49}
\global\@namedef{scr@dte@chapter@lastmaxnumwidth}{10.46805pt}
\global\@namedef{scr@dte@section@lastmaxnumwidth}{19.60016pt}
\global\@namedef{scr@dte@subsection@lastmaxnumwidth}{28.73227pt}
