\relax 
\providecommand*\new@tpo@label[2]{}
\catcode `"\active 
\select@language{english}
\@writefile{toc}{\select@language{english}}
\@writefile{lof}{\select@language{english}}
\@writefile{lot}{\select@language{english}}
\select@language{ngerman}
\@writefile{toc}{\select@language{ngerman}}
\@writefile{lof}{\select@language{ngerman}}
\@writefile{lot}{\select@language{ngerman}}
\citation{bitcoin}
\citation{krypto}
\citation{twitter}
\citation{twittersignificance}
\@writefile{toc}{\contentsline {chapter}{\numberline {1}\"Ubersicht \& Einleitung}{1}}
\@writefile{lof}{\addvspace {10\p@ }}
\@writefile{lot}{\addvspace {10\p@ }}
\@writefile{lol}{\addvspace {10\p@ }}
\citation{epidemicmodelling}
\citation{textmining}
\citation{nowcasting}
\citation{twitter}
\@writefile{toc}{\contentsline {chapter}{\numberline {2}Wissenschaftlicher Bezug}{2}}
\@writefile{lof}{\addvspace {10\p@ }}
\@writefile{lot}{\addvspace {10\p@ }}
\@writefile{lol}{\addvspace {10\p@ }}
\@writefile{toc}{\contentsline {section}{\numberline {2.1}Einordnung}{2}}
\citation{bitcoinhype}
\citation{bitcoinhype}
\citation{sentimentculture}
\citation{twitter}
\citation{twittersocial}
\@writefile{toc}{\contentsline {chapter}{\numberline {3}Fragestellung und Abgrenzung}{4}}
\@writefile{lof}{\addvspace {10\p@ }}
\@writefile{lot}{\addvspace {10\p@ }}
\@writefile{lol}{\addvspace {10\p@ }}
\@writefile{toc}{\contentsline {section}{\numberline {3.1}Krytow\IeC {\"a}hrung}{4}}
\@writefile{toc}{\contentsline {section}{\numberline {3.2}Fragestellung}{4}}
\citation{aws}
\@writefile{toc}{\contentsline {section}{\numberline {3.3}Abgrenzung}{5}}
\citation{textanalyticspython}
\citation{handsonmachinelearning}
\citation{sentimentculture}
\@writefile{toc}{\contentsline {chapter}{\numberline {4}Vorgehensweise \& Methodik}{6}}
\@writefile{lof}{\addvspace {10\p@ }}
\@writefile{lot}{\addvspace {10\p@ }}
\@writefile{lol}{\addvspace {10\p@ }}
\@writefile{toc}{\contentsline {section}{\numberline {4.1}Kryptow\IeC {\"a}hrung}{6}}
\citation{twitterapi}
\citation{cryptocompare}
\citation{textanalyticspython}
\@writefile{toc}{\contentsline {section}{\numberline {4.2}Systemarchitektur}{7}}
\newlabel{1@xvr}{{}{7}}
\newlabel{1@vr}{{}{7}}
\@writefile{lof}{\contentsline {figure}{\numberline {4.1}{\ignorespaces Systemarchitektur}}{7}}
\providecommand*\caption@xref[2]{\@setref\relax\@undefined{#1}}
\newlabel{fig:architecture}{{4.1}{7}}
\@writefile{toc}{\contentsline {section}{\numberline {4.3}Arbeitsplanung}{8}}
\citation{aws}
\bibstyle{unsrt}
\bibdata{References}
\@writefile{toc}{\contentsline {chapter}{\numberline {5}Erwartete Resultate}{9}}
\@writefile{lof}{\addvspace {10\p@ }}
\@writefile{lot}{\addvspace {10\p@ }}
\@writefile{lol}{\addvspace {10\p@ }}
\bibcite{bitcoin}{1}
\bibcite{krypto}{2}
\bibcite{twitter}{3}
\bibcite{twittersignificance}{4}
\bibcite{epidemicmodelling}{5}
\bibcite{textmining}{6}
\bibcite{nowcasting}{7}
\bibcite{bitcoinhype}{8}
\bibcite{sentimentculture}{9}
\bibcite{twittersocial}{10}
\bibcite{aws}{11}
\@writefile{toc}{\contentsline {chapter}{\nonumberline Literaturverzeichnis}{10}}
\@writefile{lof}{\addvspace {10\p@ }}
\@writefile{lot}{\addvspace {10\p@ }}
\@writefile{lol}{\addvspace {10\p@ }}
\bibcite{textanalyticspython}{12}
\bibcite{handsonmachinelearning}{13}
\bibcite{twitterapi}{14}
\bibcite{cryptocompare}{15}
